^C:\USERS\VALER\SOURCE\REPOS\18MODLE\X64\DEBUG\18MODLE.OBJ
C:\USERS\VALER\SOURCE\REPOS\18MODLE\X64\DEBUG\18MODLE.EXE
C:\USERS\VALER\SOURCE\REPOS\18MODLE\X64\DEBUG\18MODLE.ILK
C:\USERS\VALER\SOURCE\REPOS\18MODLE\X64\DEBUG\18MODLE.PDB
